{
    "defaultSeverity": "error",
    "extends": [
        "tslint:all"
    ],
    "linterOptions": {
        "exclude": [
            "node_modules"
        ]
    },
    "jsRules": {},
    "rules": {
        "no-implicit-dependencies": false,
        "no-magic-numbers": false
    },
    "rulesDirectory": []
}
