{
  "tables": [
    "FI_alerts_by_company",
    "FI_comments",
    "FI_findings",
    "FI_project_access",
    "FI_projects",
    "FI_toe",
    "FI_users",
    "FI_vulnerabilities",
    "FI_weekly_report",
    "fi_project_comments",
    "fi_organizations",
    "fi_events"
  ]
}
