{
  "comments": [
    "Forms here MUST be the result of applying the std_text() function to the original form name",
    "Even though it will work, try to only merge forms with the same schema"
  ],
  "alias": {
    "aplicacion uno": "aplicacion",
    "aplicacion dos": "aplicacion",
    "aplicacion": "aplicacion",

    "avance uno": "avance",
    "avance": "avance",

    "periodo uno": "periodo",
    "periodo dos": "periodo",
    "historia laboral": "periodo",
    "historia laboral uno": "periodo"
  }
}
