AIRS_DEV_AWS_ACCESS_KEY_ID
AIRS_DEV_AWS_SECRET_ACCESS_KEY
AIRS_PROD_AWS_ACCESS_KEY_ID
AIRS_PROD_AWS_SECRET_ACCESS_KEY
ASSERTS_DEV_AWS_ACCESS_KEY_ID
ASSERTS_DEV_AWS_SECRET_ACCESS_KEY
ASSERTS_PROD_AWS_ACCESS_KEY_ID
ASSERTS_PROD_AWS_SECRET_ACCESS_KEY
AWS_SESSION_TOKEN
CI
CI_COMMIT_REF_NAME
CI_COMMIT_REF_SLUG
CI_JOB_ID
CI_MERGE_REQUEST_IID
CI_NODE_INDEX
CI_NODE_TOTAL
CI_PIPELINE_ID
CI_PROJECT_DIR
CI_PROJECT_ID
CI_REGISTRY_PASSWORD
CI_REGISTRY_USER
DNS_ZONE_ID
GITLAB_API_TOKEN
GITLAB_API_USER
INTEGRATES_API_TOKEN
INTEGRATES_DEV_AWS_ACCESS_KEY_ID
INTEGRATES_DEV_AWS_SECRET_ACCESS_KEY
INTEGRATES_FORCES_API_TOKEN
INTEGRATES_PROD_AWS_ACCESS_KEY_ID
INTEGRATES_PROD_AWS_SECRET_ACCESS_KEY
MELTS_DEV_AWS_ACCESS_KEY_ID
MELTS_DEV_AWS_SECRET_ACCESS_KEY
MELTS_PROD_AWS_ACCESS_KEY_ID
MELTS_PROD_AWS_SECRET_ACCESS_KEY
NIX_PATH
NIX_SSL_CERT_FILE
OBSERVES_DEV_AWS_ACCESS_KEY_ID
OBSERVES_DEV_AWS_SECRET_ACCESS_KEY
OBSERVES_PROD_AWS_ACCESS_KEY_ID
OBSERVES_PROD_AWS_SECRET_ACCESS_KEY
PYPI_TOKEN
REVIEWS_TOKEN
SERVES_DEV_AWS_ACCESS_KEY_ID
SERVES_DEV_AWS_SECRET_ACCESS_KEY
SERVES_PROD_AWS_ACCESS_KEY_ID
SERVES_PROD_AWS_SECRET_ACCESS_KEY
SERVICES_PROD_AWS_ACCESS_KEY_ID
SERVICES_PROD_AWS_SECRET_ACCESS_KEY
SKIMS_DEV_AWS_ACCESS_KEY_ID
SKIMS_DEV_AWS_SECRET_ACCESS_KEY
SKIMS_GROUP_TO_PROCESS_ON_AWS
SKIMS_PROD_AWS_ACCESS_KEY_ID
SKIMS_PROD_AWS_SECRET_ACCESS_KEY
